.\"
.\" Document registers - *=you set. x=calculated:
.\"
.\" page.type        A4, LETTER or TERMINAL             (*)
.\" page.leftMargin  left margin                        (*)
.\" page.rightMargin right margin                       (*)
.\" page.width       page width                         (x)
.\" page.length      page length                        (x)
.\" page.lineLength  line length                        (x)
.\" page.topMargin   top of page to text                (*)
.\" page.headMargin  top of page to header              (*)
.\" page.footMargin  bottom of footer to bottom of page (*)
.\" page.botMargin   bottom of text to bottom of page   (*)
.\" cols             number of columns                  (*)
.\" col.spacing      column spacing                     (*)
.\" col.width        column width                       (x)
.\" ipIndent         indent for .ip lists               (*)
.\"
.\"-------------------------------------------------------------------------
.\"         USER PARAMETERS
.\" Also check the filename in the .so statement at the end.
.\"
.\" .lp \" just cos the manual says to use troff after the first .pp - but
.\" it doesn't say what troff commands are unsafe!
.\"
.if n \{\
.tm Formatting for nroff
.ds page.type TERMINAL\" A4, LETTER or TERMINAL
.nr page.leftMargin 0
.nr page.rightMargin 3n
.nr page.topMargin 2v
.nr page.headMargin 0v
.nr page.footMargin 0
.nr page.botMargin 0
.nr col.spacing 1n
.nr cols 1
.nr ipIndent 20n
.nr ps 0\" Paragraph spacing
.\}
.if t \{\
.tm Formatting for troff
.ds page.type A4\" A4, LETTER or TERMINAL
.nr page.leftMargin 2n
.nr page.rightMargin 0n
.nr page.topMargin 1v
.nr page.headMargin 0
.nr page.footMargin 1v
.nr page.botMargin 2v
.nr col.spacing 1n
.nr cols 3
.nr ipIndent 9n
.nr ps 0\" Paragraph spacing
.\}
.\"
.\"-------------------------------------------------------------------------
.\"         CALCULATIONS:
.\"
.\" Everything else ought to be calculated from here on:
.if '\*[page.type]'A4' \{\
.tm Formatting for A4 paper (210mm x 297mm)
.nr page.length 29.7c
.nr page.width 21c
.\}
.if '\*[page.type]'LETTER' \{\
.tm Formatting for US Letter paper (8i x 11i)
.nr page.length 11i
.nr page.width 8.5i
.\}
.if '\*[page.type]'TERMINAL' \{\
.tm Formatting for TERMINAL
.nr page.length 60v
.nr page.width 75n
.\}
.\"
.nr col.width \n[page.lineLength]-((\n[col.spacing]+1n)*2)
.nr col.width \n[col.width]/\n[cols]
.nr page.lineLength \n[page.width]-\n[page.rightMargin]-\n[page.leftMargin]
.nr page.length \n[page.length]u-\n[page.topMargin]u-\n[page.headMargin]u-\n[page.footMargin]u-\n[page.botMargin]u
.pl \n[page.length]u
.po \n[page.leftMargin]u
.ll \n[page.lineLength]u
.nr ii \n[ipIndent]u
.if \n[page.topMargin]<\n[page.headMargin] .ab Top margin too small for header
.if \n[page.botMargin]<\n[page.footMargin] .ab Bottom margin too small for footer
.nr tm \n[page.topMargin]
.nr hm \n[page.headMargin]
.nr fm \n[page.footMargin]
.nr bm \n[page.botMargin]
.\"
.\"-------------------------------------------------------------------------
.\"     MACROS
.\" Draw vertical lines between columns:
.de $H
.if t \{\
.  if \\n($c>1 \{\
.    nr l2 \\n[page.length]-\\n(tm-\\n(bm
\v'-1v'\h'-.5n'\L'\\n(l2u'\v'-\\n(l2u'\h'.5n'\v'1v'
.  \}
.\}
..
.\"\"   Print title & initialise boxing:
.de HD
.lp
.if !\\$2 .hl
.ne .5i
.ce 1
\\fI\\$1\\fR
..
.\" The following for compatibility with the mm commands in troff_quick.mme:
.de VL
..
.de Li
.ip "\\$1\\$2\\$3\\$4\\$5\\$6\\$7\\$8\\$9"
..
.de LE
..
.de P
.lp
..
.de Ze
.nr z.keep 0
.nr b.keep 0
..
.Ze
.de DFL \" Floating Display
.lp
.(z
.nr z.keep 1
..
.de DSL \" Display Start
.lp
.(b
.nr b.keep 1
..
.de DSCB \" Display Start Centered as a Block
.lp
.(b C
.nr b.keep 1
..
.de DE
.if \\n[z.keep] .)z
.if \\n[b.keep] .)b
.lp
.Ze
..
.de NCOL
.bc
..
.de Sp
.Li \fB\\$1\fP
.ie t \f[\\$2]\\$3\fP
.el \\$3
..
.\".ds eqn.string .(b ... .)b keep
.de Code \" equiv to <CODE>
.P
.ps -1
.nf
.na
.nh
\fC
..
.de CodeEnd
.fi
.ad
.hy
\fP
.ps +1
.P
..
.\"-------------------------------------------------------------------------
.\"     HEADERS & COLUMNS
.ds month \n(mo
.if \n(mo<10 .ds month 0\n(mo
.ds dy \n(dy
.if \n(dy<10 .ds dy 0\n(dy
.ds hours \n[hours]
.if \n[hours]<10 .ds hours 0\n[hours]
.ds minutes \n[minutes]
.if \n[minutes]<10 .ds minutes 0\n[minutes]
.ds version \n[year]\*[month]\*(dy:\*[hours]\*[minutes]
.if t .2c 1n \n[cols]
.fo ' Page %'-me Quick Reference'\*[version]'
.\"
.\"-------------------------------------------------------------------------
.\"     BODY OF TEXT
.ce 100
\fBQuick Reference Guide\fP
.br
for \fBme\fP & \fBgroff\fP (Ver. 3)
.sp 1
Copyright \(co Bob Hepple 1985, 1994, 1995,
2018 - version \*[version]
.br
.ce 0
.sp 1
All commands are \fBme\fP unless marked \fBt\fP.
See 'man groff_me' and 'man 7 groff' for details.
.br
.\"
.\"-------------------------------------------------------------------------
.nf
.HD "Page Control"
.ip "\fB.pl\fP\ N"
page length [11i] \fBt\fP
.ip "\fB.po\fP\ N"
page offset [po=.75i] \fBt\fP
.ip "\fB.ll\fP\ N"
line length [.l=6.5i] (page width = po + ll) \fBt\fP
.ip "\fB.bp\fP\ N"
new page; N=next page number
.ip "\fB.ne\fP\ N"
need vertical space (conditional page feed) \fBt\fP
.ip "\fB.pn\fP\ N"
set next page number \fBt\fP
.ip "\fB.2c\fP\ S\ N"
2 columns; S=space between columns; N=num columns
.ip "\fB.1c\fP"
1 column
.ip "\fB.bc\fP"
start new column
.ip "\fB.nr\fP\ tp\ n"
header, footer & title font size  [10p]
.ip "\fB.he\fP\ 'L'C'R'"
page header with left, centre & right parts
.ip "\fB.fo\fP\ 'L'C'R'"
page footer with left, centre & right parts
.ip "\fB.hx\fP"
suppress headers & footers on next page
.ip "\fB.$H\fP, \fB.$F\fP"
User defined macros for headers & footers
.ip "\fB.nr\fP\ hm\ N"
top of page to header [4v]
.ip "\fB.nr\fP\ tm\ N"
top of page to text [7v]
.ip "\fB.nr\fP\ bm\ N"
bottom of text to bottom of page [6v]
.ip "\fB.nr\fP\ fm\ N"
bottom of footer to bottom of page (must be <= bm) [3v]
.\"
.\"-------------------------------------------------------------------------
.HD "Paragraph Control"
.ip "\fB.pp\fP"
Paragraph with first line indent
.ip "\fB.lp\fP"
Paragraph without indent
.ip "\fB.ip\fP\ label\ size"
Indented paragraph - 'label' is put in margin of 'size' [ii=5n]
.ip "\fB.np\fP"
Numbered paragraph (reset at .lp, .pp or .sh)
.ip "\fB.bu\fP"
Bulleted list
.ip "\fB.sh\fP\ n\ 'title'"
Section header of level 'n' with title.
.ip "\fB.uh\fP\ 'title'"
Section header with no numbering
.ip "\fB.nr\fP\ pp\ n"
paragraph font size [10p]
.ip "\fB.nr\fP\ sp\ n"
section header font size [10p]
.ip "\fB.nr\fP\ qp\ n"
quote font size [pp-1p]
.ip "\fB.nr\fP\ pf\ n"
Paragraph font [1p]
.ip "\fB.nr\fP\ ii\ N"
indent for .ip [5n]
.ip "\fB.nr\fP\ ps\ N"
paragraph spacing [.35v]
.ip "\fB.in\fP\ n"
paragraph indent [0n] \fBt\fP
.ip "\fB.in\fP"
use previous indent \fBt\fP
.ip "\fB.ba\fP\ n"
set base indent for all paras, sections & displays.
No affect on headers & footers.
.ip "\fB.ti\fP"
temporary indent - as '.in' but for one line \fBt\fP
.\"
.\"-------------------------------------------------------------------------
.HD "Blocks & keeps"
.ip "\fB.(l\fP\ ...\ \fB.)l\fP"
indented, single spaced, unfilled list
.ip "\fB.(b\fP\ ...\ \fB.)b\fP"
block - kept on one page
.ip "\fB.(z\fP\ ...\ \fB.)z\fP"
floating keep - keep on one page
.ip "\fB.(l\fP\ F\ L\ C ...\ \fB.)l\fP"
same but filled, left justified, centered etc
.ip "\fB.(c\fP\ ...\ \fB.)c\fP"
centered block (not a keep)
.ip "\fB.(f\fP\ ...\ \fB.)f\fP"
footnote
.ip "\e\fB**\fP"
footnote number
.ip "\fB.(q\fP\ ...\ \fB.)q\fP"
quotation
.ip "\fB.(x\fP\ x"
start index entry under name 'x'
.ip "\fB.)x\fP\ p"
end index entry. Parameter p is a reference override,
the default being the page number (see .xp for printing)
.ip "\fB.++\fP\ P"
begin preliminary material
.ip "\fB.++\fP\ B"
Start bibliography
.ip "\fB.+c\fP\ 'Title'"
Chapter start (starts prelim section after a .++ P)
.ip "\fB.xp\fP\ x"
Print index collected under 'x' by .(x x ... .)x
.\"
.\"-------------------------------------------------------------------------
.HD "Line Control"
.ip "\fB.br\fP"
start new line \fBt\fP
.ip "\fB.hl\fP\ n"
\&'n' lines (use before .lp, .ip, .np, .bp? etc calls) [1] \fBt\fP
.ip "\fB.fi\fP"
fill on \fBt\fP
.ip "\fB.nf\fP"
fill off \fBt\fP
.ip "\fB.na\fP"
right justification off \fBt\fP
.ip "\fB.ad\fP\ b"
right justification on \fBt\fP
.ip "\fB.ad\fP\ l"
flush left, ragged right \fBt\fP
.ip "\fB.ad\fP\ r"
flush right, ragged left \fBt\fP
.ip "\fB.ad\fP\ c"
centred \fBt\fP
.ip "\fB.ad\fP"
resume previous adjustment \fBt\fP
.ip "\fB.ce\fP\ n"
centre 'n' lines (n=0 stops centering) [1] \fBt\fP
.ip "\fB.\e""\fP"
comment at start of line \fBt\fP
.ip "\fB\e""\fP"
comment in the line!! \fBt\fP
.ip "\fB.hy\fP"
hyphenation on \fBt\fP
.ip "\fB.nh\fP"
hyphenation off \fBt\fP
.ip "\fB.ls\fP\ 2"
double space \fBt\fP
.ip "\fB.sp\fP\ [1]"
skip line \fBt\fP
.\"
.\"-------------------------------------------------------------------------
.HD "Text Control"
.ip "\fB.q\fP\ 'quote'"
shorthand for left & right quote
.ip "\fB.r\fP word"
roman
.ip "\fB.i\fP word"
italic
.ip "\fB.b\fP word"
bold
.ip "\fB.bi\fP word"
bold italic
.ip "\fB.u\fP word"
underlined
.ip "\fB.bx\fP word"
boxed
.ip "\fB.sm\fP word"
small
.ip "\fB\e*(lq \e*(rq\fP"
left & right quote \fBt\fP
.sp
NB the remainder are \fBtroff\fP
.sp
.br
.\"
.\"-------------------------------------------------------------------------
.\" Now pull in the gtroff stuff. Point the filename as appropriate:
.so troff_quick.mme
.\"
.\"-------------------------------------------------------------------------
.\"     EMACS STUFF:
.\" Local Variables:
.\" mode:nroff
.\" eval:(setq filename (substring buffer-file-name (string-match "[-a-zA-Z0-9_.]+$" buffer-file-name)))
.\" eval:(setq basename (substring filename 0 (string-match "\\." filename)))
.\" eval:(setq compile-command (concat "make -k " basename ".ps"))
.\" End:
